\version "2.20"
\language "english"

\header {
  title = "Höhe Schule des Violoncellospiels"
  tagline = ##f
}

\paper {
  print-all-headers = ##t
}

\include "01.ly"
\include "02.ly"
\include "03.ly"
\include "04.ly"
\include "05.ly"
\include "06.ly"
\include "07.ly"
\include "08.ly"
\include "09.ly"
\include "10.ly"
\include "11.ly"
\include "12.ly"
\include "13.ly"
\include "14.ly"
\include "15.ly"
\include "16.ly"
\include "17.ly"
\include "18.ly"
\include "19.ly"

% Local Variables:
% compile-command: "make etudes.pdf"
% End:
